epoch	acc	loss	val_acc	val_loss
0	0.6224433829070656	0.7221879473073383	0.8946856772907353	0.4805668446319256
1	0.8237615003876034	0.442397346698217	0.975243033060221	0.32596996073512696
2	0.915684713358923	0.3203206645539696	0.9821775761503565	0.24517093532593778
3	0.9499734607218684	0.25228756885957143	0.983603370058328	0.19631074287253236
4	0.9642958245037805	0.21028555105404068	0.9841866493843162	0.16543208601910497
5	0.9691525123596866	0.18304910412597386	0.9844458846403111	0.14325653297979957
6	0.9721426043793907	0.16475114721992046	0.9848347375243033	0.12797711820318108
7	0.9734784147288895	0.15019667445136906	0.9850291639662995	0.11668396153603756
8	0.9751946214067118	0.13993151551620048	0.9852235904082955	0.10766648559487646
9	0.9757342533447687	0.13184947685746545	0.9852883992222943	0.10042649756197178
10	0.9762296532032259	0.124758205123599	0.9851587815942968	0.09458475513933003
11	0.9767869780777366	0.11956614416622559	0.9850939727802981	0.08996587505036566
12	0.9771673743976234	0.1145674322989505	0.9851587815942968	0.08616038364003946
13	0.9774946921781201	0.11106411459297469	0.9852883992222943	0.08271214454854299
14	0.9783262561671884	0.10713667749240731	0.9854828256642904	0.0793427031460669
15	0.9780874026724403	0.10494105079055085	0.9854828256642904	0.07699937993396201
16	0.9782731776193617	0.10325193047122759	0.9855476344782891	0.07507514522368075
17	0.9786181882856927	0.10009491010730517	0.9857420609202852	0.07287085867394547
18	0.9787597310602116	0.09865846684319873	0.9857420609202852	0.07142284265993983
19	0.9794851380295561	0.09607158418315062	0.9857420609202852	0.06970814585816103
20	0.9788481953543968	0.09551785488712475	0.9857420609202852	0.06824913062469108
21	0.9792993630826347	0.09277522144634844	0.9859364873622812	0.0668087778450005
22	0.9796355272638654	0.09168907952325528	0.9861309138042774	0.06567278270351949
23	0.9797416843848286	0.09071973213070433	0.9858068697342839	0.06468837688968541
24	0.9793524416473346	0.09057034423491757	0.9858068697342839	0.06373084079322108
25	0.97937898086641	0.08821685061923848	0.986195722618276	0.06241789032268741
26	0.9796797593940848	0.08752259737261625	0.986195722618276	0.06153419559757507
27	0.9799716914197864	0.08700732215342585	0.9863253402462735	0.0607201710336118
28	0.9799539985761352	0.08572092285802917	0.9863253402462735	0.059978311590497865
29	0.9797947629073455	0.0856539867892176	0.9865845755022683	0.05940053254288663
30	0.9803078556600734	0.08371831840938992	0.9865845755022683	0.05833237663886799
31	0.9798655343156965	0.0836718634335141	0.9865845755022683	0.05739919711870086
32	0.9799893842803107	0.08268577749224647	0.9867790019442644	0.05686870070327645
33	0.9803786270262413	0.08257764287540782	0.9869086195722618	0.05635984717099912
34	0.9803343949213318	0.0812179422903719	0.9868438107582631	0.05588660162565137
35	0.9803343949297684	0.08093762870321693	0.9869086195722618	0.05516663834414
36	0.9806705590856893	0.07973987450434313	0.9867790019442644	0.05468060180148905
37	0.9806263269554699	0.07885897796434961	0.9867790019442644	0.05401374258822867
38	0.9806970983975675	0.07904765882014553	0.9870382372002592	0.05358225621913191
39	0.9808917197367863	0.07848070595579543	0.9869086195722618	0.053115598692384275
40	0.9808474876065669	0.07757268692805087	0.9871030460142579	0.05272830586110278
41	0.9811128803878832	0.07682499278281398	0.9871030460142579	0.05234712757006027
42	0.98105980183162	0.0771777378019507	0.9871030460142579	0.05191710433516499
43	0.9808563340326109	0.07572797968593457	0.9871678548282566	0.05152951170034267
44	0.9810332625872348	0.075083563654497	0.9871678548282566	0.0510804355009299
45	0.9809713376049277	0.07556308598085573	0.9870382372002592	0.05078350446963766
46	0.9818736730192202	0.0738799256799243	0.9872326636422554	0.050399440275994085
47	0.9812544232045853	0.07440902050808652	0.9872326636422554	0.0501288706992046
48	0.9814048124810777	0.07381023576895733	0.9870382372002592	0.04977760277435
49	0.9813782731945094	0.0744392091702335	0.9869086195722618	0.04938843806665958
50	0.9815994338624796	0.07379163413902419	0.9868438107582631	0.04909873876819654
51	0.9818117480453497	0.0722234114055421	0.9867790019442644	0.04887029073712351
52	0.981670205262394	0.07219558811554737	0.9869086195722618	0.04859266121626113
53	0.9814755838641189	0.07223470516908868	0.9868438107582631	0.04839748138053631
54	0.9814844303154726	0.07171767014648926	0.986649384316267	0.04805418482208437
55	0.9814932767330798	0.07118834601550429	0.986649384316267	0.047767488915190746
56	0.9817498230967889	0.0701008825787651	0.9865845755022683	0.047583625620751316
57	0.98171443740105	0.07093301721534152	0.986649384316267	0.0473166629981083
58	0.9815994338456064	0.07063141300145903	0.986649384316267	0.0470674002392197
59	0.9819798301823663	0.07006942888765325	0.986649384316267	0.046859785725017956
60	0.9817409766623084	0.07024673143453153	0.986454957874271	0.046718866645092325
61	0.9821921444074194	0.06920716741451201	0.9865845755022683	0.04649425923820689
62	0.9819532908536152	0.06999002917282816	0.9867141931302658	0.04628896056194576
63	0.9820771408604124	0.06960139879449327	0.986649384316267	0.04611933431862742
64	0.9820152158443589	0.06984192698624483	0.9867141931302658	0.04605739139743531
65	0.9823602264853799	0.0683164118128049	0.9867790019442644	0.04582308081255734
66	0.9819002123057884	0.06814919537736099	0.9868438107582631	0.045586903467931324
67	0.9821390658005366	0.06781569927804283	0.9868438107582631	0.04536127673597235
68	0.9824221514423772	0.06723117051357423	0.9868438107582631	0.045221020810110514
69	0.9822098372595073	0.06773812589456406	0.9868438107582631	0.04505225479082529
70	0.9827229299194326	0.06690206955393324	0.9868438107582631	0.04493674849475687
71	0.9826963906834839	0.06618945721038587	0.9869086195722618	0.0447510363179792
72	0.9824486907626919	0.06635898119820742	0.9868438107582631	0.04462190352027785
73	0.9823336871819385	0.0672585565615274	0.9868438107582631	0.04448585390666776
74	0.9827671620918349	0.0658088264982918	0.9871678548282566	0.04427943184400823
75	0.9828998584487467	0.06549412642314935	0.9871030460142579	0.04416818536289292
76	0.9827052371179644	0.0664353506664646	0.9869734283862606	0.04414619892818717
77	0.9828113941883079	0.06577605376071484	0.9870382372002592	0.04396470120262381
78	0.982616772806906	0.06576678882401123	0.9872974724562541	0.04381955625243094
79	0.9824575371296795	0.06583558177787703	0.9868438107582631	0.04379781771436749
80	0.9829263977690613	0.0645350833185497	0.9871678548282566	0.04366273566668857
81	0.9830237084471074	0.06466992908517942	0.9874918988982502	0.043492734889190206
82	0.9833687190628186	0.06354596761529191	0.9873622812702527	0.04336138214422263
83	0.9829971691689758	0.06422721826051535	0.9874270900842514	0.043216824857367185
84	0.982979476316888	0.06332488599940554	0.9873622812702527	0.04314896209583131
85	0.9828556263607103	0.06444186868128925	0.9874918988982502	0.0430000584075808
86	0.9832183298285093	0.06359003758887112	0.9874918988982502	0.04295632821928447
87	0.9830679405857634	0.06382558806328088	0.9875567077122489	0.04288926281098926
88	0.9832183297778897	0.06350529632370942	0.9876863253402463	0.04267563100642273
89	0.9832979476207212	0.06269111628871561	0.9876215165262475	0.042669273797381606
90	0.9834394904289867	0.06254713449888169	0.9878159429682437	0.042494260346032896
91	0.9832537154989385	0.06320418380649058	0.9878159429682437	0.042402547367136834
92	0.9835456475836962	0.06230018226995337	0.9878159429682437	0.04237187050538873
93	0.9834837226098258	0.06163106269644071	0.987751134154245	0.042270773392694576
94	0.9834217975684623	0.06173850164523972	0.9883344134802333	0.0421416789142998
95	0.9834306440113794	0.061532145459139	0.9878807517822424	0.04218001397947068
96	0.9832625619081091	0.06158526088971241	0.9882696046662346	0.04200139273137907
97	0.9835102618457743	0.061140840706762824	0.9882696046662346	0.04189665277530177
98	0.9838995046170148	0.06117771853602531	0.9883344134802333	0.041934647723279136
99	0.9834306440113794	0.06089092178899012	0.988399222294232	0.04183135064782325
100	0.9840852795301898	0.060048653087292	0.9886584575502269	0.041806463801802383
101	0.9837048832524861	0.060709597132388195	0.9885288399222294	0.041628581193189435
102	0.9841737438328116	0.05953441423489873	0.9885936487362281	0.04161334732228713
103	0.9836518046624764	0.0605912139798763	0.9884640311082307	0.04162843453601891
104	0.983607572532257	0.05997135912695002	0.9885936487362281	0.04146801929725352
105	0.9839614296161951	0.05980888604168679	0.9886584575502269	0.041365767940540865
106	0.9834837225676426	0.05982904611399262	0.9885936487362281	0.04134535007927222
107	0.9835191082802548	0.0601454609885063	0.9887232663642256	0.04132450081121927
108	0.9839260438698366	0.05961072808269989	0.9886584575502269	0.041264401530039366
109	0.9838110403734492	0.05980688124758001	0.9885288399222294	0.04123008411555121
110	0.9841560509807239	0.05899520978299928	0.9885936487362281	0.0410964841435332
111	0.9836960368264421	0.06009506001931425	0.9887232663642256	0.0410988783912295
112	0.9842445152411626	0.058425435836190295	0.9885936487362281	0.04104172342824457
113	0.9837314225053079	0.059483455099107435	0.9888528839922229	0.04113638178353051
114	0.984554140161135	0.0579993840652371	0.9887232663642256	0.041004666965877325
115	0.9842179759714677	0.058571634754295984	0.9887232663642256	0.04088941625816167
116	0.9839437367556708	0.059073833978859486	0.9887232663642256	0.040854790450055065
117	0.9842622080932504	0.05836416862678292	0.9887880751782242	0.04078362048069427
118	0.9841737437906285	0.05825914070062914	0.9887232663642256	0.04071785859354396
119	0.984430290188084	0.05795125903776581	0.9887880751782242	0.04065546672000554
120	0.9842975938058625	0.057848600393341776	0.9889825016202204	0.04054853738884955
121	0.9846249115610494	0.057321056644501454	0.9887232663642256	0.04062109630432992
122	0.9842887473376356	0.05834830759880143	0.9887880751782242	0.040586310383886076
123	0.9842622080932504	0.05694959311200977	0.9889176928062217	0.04056664738527663
124	0.9845629865787422	0.05744863212825724	0.9889176928062217	0.040544452482975696
125	0.9845364472668642	0.056959528617313036	0.9888528839922229	0.04052736682911498
126	0.9845629865787422	0.05686844571085577	0.9889176928062217	0.04044246907078565
127	0.9845895258484373	0.05719954585531293	0.9889176928062217	0.040419928785727366
128	0.9847133757877418	0.05643686120466231	0.9889176928062217	0.04036371875041281
129	0.9846602972567883	0.05659312458639017	0.9888528839922229	0.040393075875621666
130	0.9846426044215738	0.056531061821598075	0.9889176928062217	0.0403853179798211
131	0.9845010615626887	0.05559179573639521	0.989047310434219	0.040354277149122875
132	0.9843506723115061	0.05665136597317664	0.989047310434219	0.040277805434973286
133	0.9848283793263122	0.05581118098215608	0.989047310434219	0.04018897564655589
134	0.9846779901257493	0.05516373003870565	0.9887880751782242	0.040154327693071194
135	0.9849079971607071	0.05509383711971801	0.9889176928062217	0.040116020744969456
136	0.984987614995102	0.05515919155154512	0.9889825016202204	0.04003865176815436
137	0.9847399151080564	0.055288263757812664	0.9889176928062217	0.04005036688574523
138	0.9846249115273029	0.0557659745996756	0.9889825016202204	0.04011135921123657
139	0.9848195329424513	0.054566634082553744	0.9889825016202204	0.04008416695313858
140	0.9851026185252357	0.055729391862969824	0.9889825016202204	0.04003351599923247
141	0.9848637650304877	0.054569032346936545	0.9891121192482177	0.0399821025205321
142	0.9849610757169703	0.05489677679471234	0.9891121192482177	0.03996150309578483
143	0.9847929936558831	0.05463530061857463	0.9889176928062217	0.039985876374504375
144	0.9849079971944535	0.055374187010657425	0.9891121192482177	0.040029047840900785
145	0.9848460722121464	0.05470975804006218	0.9891769280622165	0.04000217915782421
146	0.9852618541940256	0.054153919536343555	0.989047310434219	0.04000709604318613
147	0.985138004280031	0.05435361677869068	0.989047310434219	0.0400698295707512
148	0.9848903043001827	0.054205047888107864	0.989047310434219	0.039999608668466705
149	0.9853149328009085	0.0535488879406971	0.9891121192482177	0.03996782732393522
150	0.9850672328294968	0.05381517180802547	0.9891121192482177	0.03991440045095048
151	0.9850406935851117	0.05356809959258497	0.9891769280622165	0.03989328956171117
152	0.9851645435497259	0.054234734964303234	0.9891769280622165	0.039934640414035036
153	0.9853680113149887	0.053482882503976405	0.9891769280622165	0.03992230929585194
154	0.9849345364810217	0.054124602533861074	0.989047310434219	0.03985402754146415
155	0.9853680113234253	0.05349429221131746	0.989047310434219	0.03989672791556837
156	0.9853680113487352	0.05331758861413512	0.9889825016202204	0.03987001358185565
157	0.9855095541148176	0.05333010174455326	0.9891121192482177	0.039854911791024294
158	0.9853945506268668	0.053024597363698085	0.9891769280622165	0.03981201042471259
159	0.9851822364018137	0.053400361653936725	0.989047310434219	0.03967913623376522
160	0.9857307147743511	0.052358786658412246	0.9891121192482177	0.039736489882802546
161	0.9852707006706891	0.05280887046690453	0.9891769280622165	0.039747491863037734
162	0.9853326256529963	0.05349902921268599	0.9891769280622165	0.03983911776309199
163	0.9856599433744367	0.052133401967875095	0.9889176928062217	0.039697451845272576
164	0.9853857041670765	0.05218587907035133	0.9891121192482177	0.03977394219565163
165	0.9856245577040076	0.052405397946203504	0.9891121192482177	0.03978654723397166
166	0.9854210898965619	0.05225361976232076	0.9889176928062217	0.03974687064124473
167	0.985704175504656	0.051935486626789575	0.9891121192482177	0.03973784858067547
168	0.9856953291039221	0.05234890179438365	0.9891769280622165	0.039729578540813146
169	0.9857307147743511	0.0520950839777661	0.9889176928062217	0.03972426102969286
170	0.9857307148249708	0.05197687424608603	0.9891769280622165	0.03974507962041477
171	0.9858280254608338	0.05202095997266034	0.9891121192482177	0.03970296560953856
172	0.9855803255400418	0.052539276960717814	0.989047310434219	0.039792902485002134
173	0.9856510969905758	0.05183261179135188	0.9891121192482177	0.03965414504183194
174	0.9855184005830445	0.05176053889575615	0.9891769280622165	0.039626526306259575
175	0.985713021972883	0.050857737065627066	0.9891769280622165	0.03959347894614441
176	0.9857572540609194	0.05110011188351593	0.9891121192482177	0.03969970168135408
177	0.985889950485324	0.052095315050167644	0.9891769280622165	0.03965921598315789
178	0.9860049539985846	0.05104145313133944	0.9889825016202204	0.03957232377755655
179	0.9862349610672888	0.05113526949815858	0.9891769280622165	0.03967864344038953
180	0.9857661004785266	0.051215866890387256	0.9888528839922229	0.03970335526150432
181	0.9855714791477443	0.05170357105943723	0.9889176928062217	0.03963383969754869
182	0.9858368719290607	0.05149529706963561	0.9888528839922229	0.03965441735771594
183	0.9859076433036653	0.05066193528763386	0.9891769280622165	0.039625562407916544
184	0.985828025477707	0.05145125354034464	0.9888528839922229	0.03962308616146242
185	0.9856245577124443	0.051182329106314	0.9889176928062217	0.03969424975171627
186	0.9858014861911387	0.05074906139690574	0.9891121192482177	0.03965738167037448
187	0.9861553432750769	0.05027332969500254	0.9891121192482177	0.03960655120618482
188	0.9859695682775358	0.05098065102007569	0.9891121192482177	0.03967667602398569
189	0.9862349611010353	0.05099955422557252	0.9889825016202204	0.03974227250830711
190	0.9858545647389654	0.05082779812289735	0.9891121192482177	0.03970710690092834
191	0.985934182581797	0.05023151023151262	0.9889825016202204	0.03971546488751887
192	0.986075725398499	0.0501327354822147	0.9889176928062217	0.03978458647323472
193	0.9863322717453349	0.04991826230722037	0.989047310434219	0.03969161520981877
194	0.9860757254238088	0.05060609828915397	0.9891121192482177	0.03970707444382357
195	0.9857661005207097	0.051217884207058695	0.9891121192482177	0.03971578426374218
196	0.9859695683197189	0.049760293912060785	0.9891121192482177	0.03965866215018844
197	0.9859961076062871	0.050113217267672476	0.9889825016202204	0.03968869573566447
198	0.9863588110319031	0.04927580496961988	0.9889825016202204	0.03969461635909178
199	0.9865622788646587	0.0491438623657483	0.9891121192482177	0.039772758395329594
200	0.9862438075355158	0.04950364783817542	0.9889825016202204	0.03979383962692443
201	0.9863765038924275	0.04873337636517871	0.9889825016202204	0.03981615638170857
202	0.9866418966990537	0.04906045131685881	0.9892417368762152	0.03975094493112768
203	0.9863588110740862	0.049653232662878556	0.9891769280622165	0.03966054768565311
204	0.9861730360934182	0.04938797959523975	0.9894361633182113	0.03967941525450781
205	0.9861111111448575	0.04954850438294137	0.9891769280622165	0.03978165697894281
206	0.9861907289370694	0.04897236246391551	0.9894361633182113	0.039649244071040556
207	0.98636765750013	0.04835343062930384	0.9892417368762152	0.039686905871111025
208	0.9862880396572985	0.049144178634721675	0.9894361633182113	0.03969750445304717
209	0.9863322717959545	0.04886003047523141	0.9891121192482177	0.039750467118585625
210	0.9859518754760678	0.049533029828123055	0.9891121192482177	0.03966652186314635
211	0.9865976645350878	0.04844581368158493	0.9893065456902139	0.03967425345128724
212	0.9861464968152867	0.04892805724154949	0.9891769280622165	0.039641280233080195
213	0.986075725440682	0.04870371045432695	0.9892417368762152	0.03977836937259108
214	0.9864826609965174	0.04828637577777877	0.9893065456902139	0.039808060752852
215	0.986730360925746	0.04828757482244035	0.9893065456902139	0.039797299643839656
216	0.9869869072810185	0.04683609459699466	0.9891769280622165	0.03979579737525837
217	0.986686128829273	0.04801258567222364	0.9893713545042125	0.039745193059367266
218	0.9864561217183857	0.04818985198017392	0.9893065456902139	0.039761293816186455
