epoch	acc	loss	val_acc	val_loss
0	0.5435581101803664	1.4234973667080064	0.5742120341790098	0.6973691405744471
1	0.6342072059559016	1.1123750879439334	0.6540114612155794	0.5977266057059097
2	0.6884690873505573	1.0068281364477685	0.7201528177220363	0.522693122833711
3	0.7309477078301299	0.9294092659928196	0.7808500480173652	0.45697531248118156
4	0.7556848450929039	0.8961920337257188	0.7959885389324359	0.43698677784961637
5	0.7758656946636426	0.8543916114396406	0.8231136580251349	0.4090127673622758
6	0.7890508902352003	0.8147183105042451	0.8378701051645543	0.3900260828855272
7	0.8014159540065154	0.8082725490232545	0.8669054442057751	0.35140474617993595
8	0.8130309827528611	0.7796698497235148	0.8392550145657492	0.387609099328461
9	0.8199635497069402	0.7597270358307372	0.836007640821772	0.391989515088463
10	0.8286275059548799	0.7345968987436026	0.885195797425628	0.3229637315872178
11	0.8315435300765124	0.7131356615196618	0.8637535815935763	0.35083069393149763
12	0.8388055516529364	0.6882239532992129	0.8478987585963128	0.3697694796830444
13	0.8412799663652666	0.6762650965507846	0.883572110576411	0.3158605680823212
14	0.8472662274004884	0.6559476427580353	0.8911174784417139	0.2998087542218716
15	0.8496495163225115	0.6487009407961567	0.7991404009639591	0.43613026945388306
16	0.8555586709559055	0.6168317786042526	0.8798949379975611	0.3146329529647499
17	0.8593509042512045	0.6008065531886545	0.9132282711714933	0.2551934675108054
18	0.8597013879119807	0.5794048819972442	0.8895893025648742	0.2907343489392781
19	0.8657016683055996	0.5746708827217281	0.8884909262515982	0.29185174829411076
20	0.8696270853828351	0.5643926403556919	0.8289398283307168	0.3943859644127439
21	0.8709168652640508	0.5541312588902354	0.9017669534273339	0.2661607671148342
22	0.874302537491725	0.5350150212062686	0.8874403055668333	0.29491593001451283
23	0.8781298191554413	0.5207958742109234	0.9158548230883499	0.23085902916212364
24	0.8841020608406222	0.49298983374969596	0.8877268386775238	0.28719634915263514
25	0.8851044441429309	0.5034582132579868	0.9301814708008351	0.2060267811119841
26	0.8868568624802363	0.48339519627746386	0.8642788923116901	0.3299897931708306
27	0.8920300014119621	0.4712101525383311	0.8736867242123586	0.31224272358724925
28	0.8946796579179132	0.4682168951011817	0.9324259792039137	0.19302775520251383
29	0.8977218561564891	0.44510133933857216	0.9116045846069212	0.23791778678538805
30	0.8984438525281714	0.4470544995114126	0.8918338106833078	0.28050109782783667
31	0.9006799383048472	0.43324879812405453	0.8680993313661847	0.3302274811916843
32	0.9021099116814583	0.4247535256948074	0.9146609359393261	0.23378809352032662
33	0.904752558534115	0.42403611657697354	0.9015759313004065	0.2629530926289281
34	0.9061054254754737	0.41814419765651567	0.9328080230023367	0.19247908334620475
35	0.9101920650531111	0.39647836457683616	0.9169531995496413	0.22423124891752955
36	0.9128977989725957	0.38709090790757955	0.9068290354187646	0.24811687457527334
37	0.9164867517140275	0.37273155434526367	0.9268385866537704	0.20430529955578852
38	0.9165638581342388	0.36552069703242096	0.9021967527062527	0.26407769366230643
39	0.9198794336200646	0.3679335753057509	0.930850047687177	0.1930412404089739
40	0.9207696621287309	0.34966697843700173	0.8818529133127208	0.3038559751843085
41	0.9218070937844157	0.3540959436170152	0.9347182426662135	0.1819429359981415
42	0.9248002243062047	0.33068607013840234	0.9405921680082451	0.17247286267870363
43	0.9241062666362756	0.34064185062665414	0.9508595986147664	0.14813443650602726
44	0.9273237067035685	0.33546576984346826	0.9497612222901046	0.1514633768182088
45	0.9270363101029353	0.3256363008874806	0.9323304680607494	0.1936864922984851
46	0.9275620356041269	0.32996687015042503	0.8947468959727283	0.2787354244828338
47	0.9286345156399277	0.31906516932887985	0.9402101243692232	0.17082897611424938
48	0.9322795457748382	0.31410076357941297	0.9020534863672375	0.2586001066446532
49	0.9321113136077719	0.2992638111289982	0.9390162370721841	0.17496670412527685
50	0.9338637319367212	0.29961010255269444	0.932712511711157	0.1889563782395014
51	0.9358264404745034	0.2952421861060552	0.9518624640922947	0.14298735387061137
52	0.9377330716472179	0.28438140996271577	0.939541547334866	0.17860848053137007
53	0.9380695359546106	0.28505540055378314	0.9265998087503166	0.20387777283915817
54	0.9385532034290768	0.2693310938258501	0.9436007638373826	0.16362272519209095
55	0.9401794476260414	0.2712834065982942	0.9695797518422291	0.1014830085729118
56	0.9417496144545959	0.2627707933608302	0.9477554916310789	0.15642724876303613
57	0.9433548296732938	0.26557000886670307	0.9434574976463828	0.16702344533991792
58	0.9436211972538793	0.2567525599592116	0.9550620818775727	0.136767702933255
59	0.9442730968670008	0.2544074986996431	0.9127029608974256	0.23929248218777757
60	0.9444693677207789	0.25526106842567253	0.9538681948651785	0.1397401708486884
61	0.9459974765259505	0.2518414167707404	0.9336676218220474	0.19031003158550208
62	0.946291882786563	0.2422688434121653	0.9559216808794563	0.128092703486525
63	0.9469648114347732	0.25135291130934156	0.9614613179263322	0.11686856548987692
64	0.9475536240027927	0.24697172819281232	0.9600286534659159	0.1208721615068095
65	0.9483737557913366	0.243127335983407	0.9186723975306368	0.22823011094940882
66	0.9494041777603024	0.23613055368033328	0.9610792740026655	0.11459348552718887
67	0.9498948549081179	0.24059365338168137	0.9468003819528487	0.15197403065454654
68	0.9489906070260133	0.23601672666346593	0.9566380133943093	0.13090883146014345
69	0.9515911958369034	0.21765932959300613	0.9534861506568668	0.13467738145914324
70	0.951983737559501	0.22912792121981332	0.9348615088344417	0.1791544166369561
71	0.9514650217249737	0.22182219317763915	0.9467048711057151	0.15457356590083812
72	0.9521729987248889	0.22471591378434852	0.9348137533311743	0.19045261302331343
73	0.9537011075150192	0.21176602440183367	0.9513371538068413	0.1430816441347401
74	0.9537641945751623	0.21756025543223587	0.9377268384953511	0.1766882070469196
75	0.9559862610485917	0.20849673073296457	0.9372015279252527	0.18173458964742698
76	0.9545002102985567	0.2180281401695818	0.9589780322118612	0.12243868917112934
77	0.9557689611680809	0.21077130992165558	0.9663323782462673	0.10421128931109293
78	0.9564138511162092	0.21158269091439952	0.959789876006508	0.12318936006415995
79	0.9565330155497762	0.20716631688803255	0.9597898755738478	0.12247678643624443
80	0.9574372634318806	0.19638060373083732	0.9580706782987717	0.12194571950772658
81	0.9582153371519182	0.1950185241207708	0.9416427889662691	0.17633554166629412
82	0.9590845366605916	0.19799815872322454	0.9470391592414695	0.15797878040112875
83	0.958614888547865	0.18544477632841924	0.9420725885298328	0.1667283276489152
84	0.9597714846354455	0.18676745610134843	0.9678605536904467	0.09616673750431057
85	0.9607878872777676	0.17611816560450802	0.97024832856917	0.09539560076443492
86	0.9614538062609848	0.1848089478789849	0.9531518622023101	0.13753219314325163
87	0.9615239029794359	0.18045908789676987	0.9400191020942804	0.17335127719607712
88	0.9625613346501619	0.1783590917293644	0.9609360075156349	0.11785436199182767
89	0.9617622318816657	0.18378247665302727	0.9555396370924191	0.12950982141175948
90	0.9622318800027484	0.18148091250510132	0.9587870103923503	0.12574646489582636
91	0.9626033926752161	0.1793506276343458	0.9145176694295241	0.24704840720383006
92	0.9634796018371838	0.17428543218034825	0.9479465137352346	0.15525154999983004
93	0.9636338146575517	0.17895979054525993	0.972445081195722	0.08889446397807446
94	0.9645731108947037	0.1681877361788884	0.9348137536272051	0.19635640974828142
95	0.9654493200700414	0.16165128176574634	0.9450334290264898	0.1611423705488358
96	0.9632693116433921	0.17773635808530436	0.9506685766244686	0.1478867690907053
97	0.9633674470635963	0.17219109026962973	0.9618433619980142	0.11497728552067975
98	0.9649516332622465	0.1667887926398329	0.9430754534266853	0.1740358662354798
99	0.9650007009690061	0.1679756227550125	0.9676217765156838	0.1010718611301187
100	0.96617131640997	0.16049061984671928	0.97024832856917	0.09385410096165443
101	0.9668442450665364	0.16109468722166292	0.9439828081937096	0.17194992216604602
102	0.9662273938118049	0.16093035262680214	0.9443648516847161	0.1681278689215609
103	0.9671807093872992	0.1544640342230869	0.9635148043618844	0.11419476354503585
104	0.9685195569836306	0.14839415900105266	0.9503342884773284	0.14981606355312332
105	0.9667531193129966	0.15944607536354558	0.9503820439692099	0.14649017362391936
106	0.9669634095134733	0.15574995068026076	0.9619388731411785	0.11408664800489984
107	0.9680499088826027	0.15087918039250972	0.9562082139673752	0.12804940768589604
108	0.9673138931592082	0.16201297493313868	0.9519579753379311	0.14957469223990483
109	0.9674961446796579	0.14779565653045731	0.9612225407515692	0.11569549163808795
110	0.9688560213043933	0.14966834354046332	0.950334288613958	0.1456988614447479
111	0.9686667601156081	0.14803389158712502	0.9757879653314009	0.08087270318707514
112	0.9698443852382774	0.1445920214669059	0.9789398277955843	0.07426554895403734
113	0.9702018786008137	0.14231762294429692	0.9546800382271651	0.13757966269508587
114	0.9705733912732815	0.14516025937557822	0.9774116522033895	0.07678511549132487
115	0.9711131361144866	0.1408562222031646	0.9693887294306568	0.09663882461779438
116	0.970398149432866	0.14418651552036035	0.9586437439053197	0.12870221592009123
117	0.9709799523425774	0.13396969848618875	0.9547755493589436	0.14120988132362722
118	0.9709378942891121	0.14176987079522493	0.9713944603743275	0.09175514716872057
119	0.9714215617485372	0.13536766539879438	0.9609837630075165	0.12283827755689165
120	0.9719683162848177	0.13476622311460276	0.9697230181584727	0.09569995957920407
121	0.9725080611109818	0.1294511336164222	0.9713467045864153	0.09579881000783519
122	0.9738398990607038	0.12494582543827225	0.9577841453360965	0.13370951555149832
123	0.9729216318452708	0.12589223876493133	0.9665711555462739	0.10600051364319714
124	0.9729636898786811	0.13092741780009157	0.9578796560352147	0.13360787729564574
125	0.9724800224175848	0.1319374236662751	0.956924546493614	0.13299328550596748
126	0.9729356511936404	0.12771741347177223	0.9640401144879368	0.11349579275380232
127	0.9730407962855225	0.13054694759508145	0.9483285578183026	0.1633218637680939
128	0.9737417636271297	0.1194000292907302	0.9694842406990649	0.09685056431373758
129	0.9734894154015988	0.1292940494022479	0.9645654250352635	0.10922867970571364
130	0.9743445955351628	0.12546553788342382	0.9523877744688346	0.15030376112592025
131	0.973973082847654	0.12793882604436155	0.9700095512577774	0.09653728185746367
132	0.9745618954156736	0.12429287044027737	0.9614135624344506	0.1211342879273033
133	0.9751647273170218	0.12624411090893012	0.9326647561965039	0.22422488505712782
134	0.9746179728041386	0.11885516693076328	0.9606494748489904	0.1264112062289699
135	0.9755292303244963	0.12286378169534384	0.9702005732253037	0.09743195430597125
136	0.9745338567155918	0.12816669926534072	0.9703915948967993	0.09328353613287695
137	0.9743025375017524	0.12529581851100965	0.9776026744669465	0.07561958724385574
138	0.9764545072132786	0.1119445546371028	0.9544890164076542	0.13424827624984093
139	0.9762231879927543	0.12474893080299104	0.947564469640781	0.16020839386677446
140	0.9754451142509907	0.11745252639972344	0.9700095511097621	0.09844003109458865
141	0.9760829945257699	0.11507786089792318	0.9604584528814641	0.12482859664796758
142	0.9762161783194051	0.11488791672048337	0.959598854027596	0.12702447775726447
143	0.976524603961812	0.11394061444685767	0.9640878702644632	0.11549307402248254
144	0.9763353427596568	0.10996268747415414	0.9658070678241842	0.11179030117042427
145	0.9766788167754948	0.12322419020005869	0.9691499524039092	0.10218198951742938
146	0.9767208748089052	0.11654970362629978	0.9662368673991337	0.10671407171554415
147	0.9770222907478806	0.10564412797264443	0.9734957020171164	0.08500814325004503
148	0.9766998457805014	0.11063190407661407	0.9647086916589236	0.11366163603925887
149	0.9775830646308595	0.10707284285709498	0.9753581659044669	0.0812725343738808
150	0.9784732931395258	0.10447456358893964	0.970725883636001	0.09097428923506563
151	0.9774078228038139	0.11040771312559368	0.966857688349548	0.10889477223556386
152	0.9778634515715133	0.10833121919705492	0.96781279848321	0.10534816245906901
