epoch	acc	loss	val_acc	val_loss
0	0.5382092198581561	1.068059590945007	0.6166666655106978	0.6750489435051427
1	0.5596631205673759	0.9957757435791882	0.6775757571783932	0.6157156162550955
2	0.5846631205673759	0.9263577823097824	0.7233333331888372	0.5690574696569731
3	0.6033687943262411	0.8738465366634072	0.7612121230183225	0.5302276726202532
4	0.6218971631205674	0.8269558089844724	0.7948484846317407	0.49656197215571546
5	0.6381205673758865	0.7798106014305818	0.8200000017339533	0.46753833055496213
6	0.6517730496453901	0.7570491195570492	0.8436363625526428	0.44218579097227617
7	0.6594858156028369	0.7281017124652862	0.864545455051191	0.41922435500405053
8	0.6771276595744681	0.69095095201587	0.878484846534151	0.40241254177960484
9	0.6852836879432624	0.6671683657253887	0.8878787877342917	0.38803462584813436
10	0.6946808510638298	0.6509658092302634	0.8912121205618887	0.3763317594383702
11	0.7062056737588652	0.628804560333279	0.9015151510094151	0.36240003007830995
12	0.7156914893617021	0.6202704280826217	0.9078787898294853	0.35061721920967104
13	0.724645390070922	0.5977965707474566	0.9084848499298096	0.3416675399650227
14	0.7271276595744681	0.5951063705251572	0.9145454557736715	0.33371022845759535
15	0.7374113475177305	0.5755881886110238	0.9139393943728823	0.3248702243241397
16	0.75177304964539	0.5566883662702344	0.9187878780653983	0.31503293069926175
17	0.7485815602836879	0.5533307368028249	0.9203030302307823	0.306761844663909
18	0.7615248226950354	0.5255348225011893	0.9218181817459338	0.2992919517647136
19	0.7656028368794326	0.5268414286856956	0.9227272714990558	0.29038487940123586
20	0.7793439716312057	0.5043612705054858	0.922424241846258	0.28508739099358066
21	0.7811170212765958	0.5044439031722697	0.9221212121934602	0.2808030455040209
22	0.7865248226950354	0.4885721504265535	0.9227272727995208	0.2759146822943832
23	0.7888297872340425	0.4869784731391474	0.924545456423904	0.270936198090062
24	0.7919326241134752	0.4791149988242075	0.9254545455267935	0.2649159003387798
25	0.8038120567375886	0.4622957866665319	0.9254545473329948	0.26031486760486255
26	0.7982269503546099	0.46768772094807726	0.9263636375918533	0.25453242471723847
27	0.8021276595744681	0.46129991872936277	0.9269696988481464	0.2519852511810534
28	0.8062943262411347	0.4475810964056786	0.9269696988481464	0.24829039523095794
29	0.8086879432624113	0.4439314310009598	0.9272727291511766	0.24472991170305194
30	0.812677304964539	0.4353163440176781	0.9269696965362086	0.24202203541090994
31	0.8122340425531915	0.4435654734888821	0.9272727286454403	0.24009329470721158
32	0.8207446808510638	0.42670655428095067	0.9272727286454403	0.2386686458009662
33	0.826950354609929	0.42566181015461046	0.9275757589484706	0.23521133292805066
34	0.8290780141843972	0.4153807284138727	0.9284848468953912	0.23293121551022386
35	0.8324468085106383	0.4074636880387651	0.9296969692634813	0.22783355962146412
36	0.8320921985815602	0.4082501070719239	0.9303030292193095	0.22479964982379566
37	0.8310283687943263	0.40348694062402063	0.9309090904756026	0.22337451627760221
38	0.8365248226950355	0.3940319784144138	0.9309090904756026	0.22082718462655038
39	0.8408687943262412	0.38947575269861423	0.9318181825406624	0.2162604417584159
40	0.8392730496453901	0.38875969487724577	0.9306060619787736	0.21626152916388078
41	0.839095744680851	0.38803640460291655	0.931515152237632	0.21202596816149624
42	0.8520390070921986	0.3697084705880348	0.932727271643552	0.20746497269832725
43	0.8458333333333333	0.3775370903894411	0.9315151499256943	0.20796347296599185
44	0.8546099290780141	0.36491768258683227	0.929696968757745	0.21018657019644071
45	0.8489361702127659	0.3649722024904075	0.9318181813846935	0.20478384014331932
46	0.8524822695035461	0.3632317453834182	0.934242423808936	0.20212138920119316
47	0.8542553191489362	0.362777889366691	0.9321212134939252	0.20311770580031654
48	0.8575354609929078	0.3534947528906748	0.934848483764764	0.19842649756055888
49	0.8585106382978723	0.3515466996329896	0.9348484855709653	0.19867210789160294
50	0.8602836879432624	0.348203769643256	0.9330303050532486	0.20030445767171456
51	0.8617021276595744	0.34925896233700693	0.9342424233031995	0.19776455557707584
52	0.8671985815602837	0.3412344639182936	0.9372727291511767	0.19275111209262502
53	0.8641843971631206	0.33288437939704735	0.9342424256151373	0.1939764052810091
54	0.8673758865248227	0.3365691445186629	0.936363635930148	0.19086564269932835
55	0.8662234042553192	0.3350110054438841	0.9339393941561381	0.19257168621727916
56	0.8718971631205674	0.3217905753047754	0.9369696988481464	0.18799904693256725
57	0.8739361702127659	0.32447255351019244	0.9345454552679351	0.18914677320104656
58	0.8723404255319149	0.31651121995127796	0.9369696976921775	0.18702953111041676
59	0.875177304964539	0.31754433292869133	0.9378787886012684	0.18534450675501968
60	0.8784574468085107	0.31822575161643063	0.9345454529559973	0.18688473582267762
61	0.8772163120567376	0.3149154581922166	0.9372727279952078	0.1843029115416787
62	0.8795212765957446	0.30949136179389686	0.9406060624845101	0.18123896385684157
63	0.8776595744680851	0.30878098960041156	0.9384848480513601	0.18210583820487514
64	0.8812056737588653	0.3068827971287653	0.9393939378044822	0.18163947184880574
65	0.8820921985815603	0.3002118242125139	0.9390909075014519	0.18111849947409198
66	0.887145390070922	0.29895832204649636	0.9421212121934601	0.17725289471221692
67	0.887145390070922	0.29162601826461493	0.9403030292193095	0.17702877655173793
68	0.8834219858156028	0.3014340631082548	0.9387878806663282	0.17878576798872514
69	0.8841312056737589	0.29373861788012456	0.9406060595223398	0.17478871161287482
70	0.8914893617021277	0.28842619763198474	0.9393939412723888	0.17696027076605594
71	0.8857269503546099	0.2867329249145291	0.9396969715754191	0.17427566936521818
72	0.8937056737588652	0.2772747476050194	0.9403030292193095	0.1729942761406754
73	0.8881205673758865	0.288151855544841	0.9409090898253701	0.1720242602897413
74	0.8932624113475177	0.28009215263610193	0.9396969697692178	0.17248156973809908
75	0.8968971631205673	0.2753281745082098	0.943939394011642	0.16853001767938788
76	0.8969858156028369	0.26963408487908386	0.941818180734461	0.16891618743087305
77	0.8984042553191489	0.26938068782184144	0.9448484849207329	0.1666167818777489
78	0.89822695035461	0.2689487803912332	0.9393939412723888	0.1703985503948096
79	0.899468085106383	0.2669902921568417	0.9412121201284004	0.16706401936935655
80	0.8958333333333334	0.2733350944011769	0.9396969715754191	0.1676254817572507
81	0.9022163120567376	0.26114901507154425	0.9415151504314307	0.16503375920382413
82	0.9045212765957447	0.2616979352971341	0.9451515152237632	0.16193675048423536
83	0.9062943262411347	0.25358691283151613	0.9424242413405216	0.1623518817352526
84	0.9029255319148937	0.2517014463742574	0.9424242413405216	0.1623660116484671
85	0.9046985815602837	0.2555572734656909	0.941818180734461	0.16206423138127182
86	0.9034574468085106	0.2510832229827313	0.9415151533936009	0.16312548247250644
87	0.9064716312056738	0.25034208285047654	0.9421212110374914	0.16136194200226756
88	0.9029255319148937	0.2551551861543182	0.9430303019465822	0.1596484566818584
89	0.9086879432624113	0.2447655018445448	0.9433333322496125	0.15902034698110637
90	0.9071808510638298	0.24483011064799964	0.9418181836966313	0.16001662944302414
91	0.9092198581560283	0.24442135087141753	0.9463636352799155	0.15634015195297474
92	0.9076241134751774	0.24060894555233894	0.9433333322496125	0.15735116835796473
93	0.912145390070922	0.23755764263741513	0.9442424231587034	0.1555056350881403
94	0.910904255319149	0.23565335797925369	0.9430303019465822	0.15584237058957418
95	0.9155141843971631	0.23304909579720057	0.9433333322496125	0.15490496299483558
96	0.9140070921985816	0.23129280306768757	0.9454545443708247	0.1532220067761161
97	0.9145390070921986	0.2326649509423168	0.9484848485570966	0.14987973646684127
98	0.9198581560283688	0.22175573328285353	0.9466666655829459	0.15172877210559266
99	0.9177304964539007	0.2217430440246636	0.9430303019465822	0.15299702019402475
100	0.9156914893617021	0.22375314277960054	0.9445454534617337	0.15158916036287942
101	0.9188829787234043	0.2270859775813759	0.9463636352799155	0.1501068014087099
102	0.9165780141843972	0.22279491458378786	0.944848483764764	0.15080698999491604
103	0.9209219858156028	0.21990724117197888	0.9469696958859761	0.14868044264388808
104	0.9216312056737589	0.21917885203733511	0.9457575746738549	0.1484967461860541
105	0.9213652482269503	0.21735955240033197	0.9493939394661874	0.14584688226381937
106	0.9203014184397164	0.21853258863408515	0.9454545443708247	0.14804626526254597
107	0.9208333333333333	0.2133210075662491	0.9521212121934601	0.14403658397269972
108	0.9202127659574468	0.21357436336524097	0.9499999989162792	0.1448823493899721
109	0.9209219858156028	0.21517060686510506	0.9493939383102186	0.14492025870265382
110	0.9258865248226951	0.20650677353355057	0.950000000072248	0.14378343910881966
111	0.9271276595744681	0.20316731490141957	0.9499999989162792	0.1435615363626769
112	0.924645390070922	0.20433699302639521	0.9463636352799155	0.1454052329785896
113	0.9259751773049646	0.20378034700315895	0.948787877704158	0.14310160514080164
114	0.9238475177304964	0.20601926678461385	0.9484848474011277	0.14434928442492628
115	0.9243794326241135	0.19963910793159026	0.9481818170980973	0.1438679189754255
116	0.9275709219858156	0.19908517818924384	0.9499999989162792	0.14073573647123394
117	0.9277482269503546	0.19476662214766158	0.9503030292193095	0.14024532874425252
118	0.9313829787234043	0.19472712726457744	0.9481818170980973	0.1416084832494909
119	0.9250886524822695	0.19845984611950868	0.948787877704158	0.14032729441469366
120	0.9306737588652483	0.19283605397593045	0.9478787867950671	0.1409258186455929
121	0.9324468085106383	0.18879769134817395	0.9481818170980973	0.13980160016002077
122	0.9258865248226951	0.19920537173748015	0.9481818170980973	0.14015088121096292
123	0.9311170212765958	0.19112397390054472	0.9490909080071883	0.13894730896660776
124	0.9304078014184397	0.18655128873197746	0.9493939383102186	0.13898711908947337
125	0.935372340425532	0.18160090628245198	0.948787877704158	0.13914859226255705
126	0.9336879432624113	0.18312904496564933	0.9496969686132489	0.13711874929341403
127	0.9314716312056738	0.18559467154191742	0.948787877704158	0.13861908475557963
128	0.93572695035461	0.1787167246460069	0.9493939383102186	0.1380630701599699
129	0.9354609929078014	0.18106046781895008	0.9503030292193095	0.13563566052552425
130	0.9364361702127659	0.17669751940044107	0.9496969686132489	0.13628271720626137
131	0.9367021276595745	0.1755785733884108	0.9493939383102186	0.1374667166218613
132	0.9359042553191489	0.17688766265591832	0.9493939383102186	0.13739408500266798
133	0.937677304964539	0.17495912698143762	0.9533333334055814	0.13356372172182257
134	0.9365248226950355	0.17374506656159747	0.9500000018784495	0.13634124206774162
135	0.9368794326241134	0.17466563022305778	0.9481818200602676	0.13796130308599183
136	0.936968085106383	0.17896413524100122	0.9554545466827624	0.131506117365577
137	0.937322695035461	0.17380420037195193	0.9496969715754191	0.13508469307061396
138	0.9368794326241134	0.17015368947957424	0.9509090927875403	0.13387440862077654
139	0.9404255319148936	0.1663234239563029	0.9530303019465822	0.13207668633172007
140	0.9416666666666667	0.16749566873760088	0.9509090927875403	0.13361645165717964
141	0.9402482269503546	0.16723426085837345	0.9484848503632979	0.13553343147942515
142	0.9428191489361702	0.16469792290359525	0.9539393928556731	0.1308918928377556
143	0.9398936170212766	0.16739939176444465	0.9503030321814797	0.13344528046521273
144	0.9414007092198582	0.1674257553004204	0.9503030321814797	0.1340274993939833
145	0.9415780141843971	0.1648270347651015	0.9506060624845101	0.1325573562672644
146	0.9433510638297873	0.16319238888033738	0.9500000018784495	0.13317954901492957
147	0.9468085106382979	0.158969797986619	0.9503030321814797	0.13261655086820776
148	0.9453014184397163	0.15780509247424754	0.9515151533936009	0.1321620039506392
149	0.9431737588652482	0.15899539691336612	0.9509090927875403	0.13148492059924385
150	0.9437943262411348	0.16067685573659043	0.9503030321814797	0.13130387822786968
151	0.9419326241134752	0.16062852617696669	0.9496969715754191	0.13159824340632467
152	0.9432624113475178	0.16124076175351515	0.9521212139996615	0.12983090931719
153	0.9468971631205674	0.15485673982200893	0.9503030321814797	0.13116321289178096
154	0.9437056737588653	0.1605988584934397	0.946666668545116	0.1340437729430921
155	0.9441489361702128	0.1570484826539425	0.9527272746057222	0.1294754760012482
156	0.9462765957446808	0.15476785412071445	0.9536363625526428	0.12835006865588103
157	0.9454787234042553	0.15543200487786152	0.9518181836966312	0.12963599876923995
158	0.9438829787234042	0.15265034602043476	0.9539393928556731	0.12743806181531964
159	0.949822695035461	0.15097586689582954	0.953636365514813	0.12730553543928896
160	0.9476950354609929	0.1463419352862852	0.953939394011642	0.126692819739833
161	0.9459219858156028	0.15344578879522094	0.9524242419907542	0.1281342478954431
162	0.9419326241134752	0.15553751115205017	0.9499999995665117	0.1298993058457519
163	0.949468085106383	0.14770989164393	0.9521212116877238	0.12899116965857418
164	0.9499113475177305	0.1422366296991389	0.9524242419907542	0.1286610853130167
165	0.9500886524822695	0.14345863863086025	0.9496969692634813	0.13071009361382688
166	0.949645390070922	0.14429380506911177	0.9521212116877238	0.12876047669035015
167	0.9488475177304965	0.14343281527783008	0.9536363632028753	0.12643071407621556
168	0.9476063829787233	0.14974756887618532	0.9518181813846935	0.12820011619365576
169	0.95	0.14331664417652373	0.9527272746057222	0.12697590856841115
170	0.95	0.1418059046386827	0.9566666667389148	0.12427577784567169
171	0.95	0.1394903045174078	0.9524242419907542	0.1286312754948934
172	0.9488475177304965	0.14253907205787955	0.9548484837647641	0.12536088235450513
173	0.9488475177304965	0.14095428498290108	0.9536363632028753	0.1268183450265364
174	0.9512411347517731	0.14081978425383568	0.9548484844149965	0.12596917439590802
175	0.9511524822695036	0.13918113495018467	0.9557575776360252	0.12502739214535916
176	0.951418439716312	0.13966200586329114	0.9560606056271177	0.12562721104332894
177	0.9515070921985815	0.1370982250423296	0.9506060619787736	0.1292164748726469
178	0.948936170212766	0.14380871311147161	0.9557575753240874	0.1255355734716762
179	0.9543439716312057	0.13191264326690783	0.9569696958859761	0.12356038512605609
180	0.9547872340425532	0.13585215496255995	0.9569696965362087	0.12398374895254771
181	0.9557624113475177	0.13371941787554018	0.9506060619787736	0.1285207853714625
182	0.9527482269503547	0.13353436469291965	0.9542424238089359	0.12573834738948128
183	0.9546985815602836	0.13160969214447846	0.9554545450210571	0.125126962444999
184	0.9547872340425532	0.13129457641155162	0.9560606067830866	0.12332147520599943
185	0.9534574468085106	0.13246799280457464	0.9536363632028753	0.12536040855176522
186	0.9567375886524823	0.12800367192385045	0.9542424238089359	0.12516447614539752
187	0.9554078014184397	0.13154449615072697	0.9548484844149965	0.12479469481742743
188	0.9546985815602836	0.12959277505147543	0.9545454529559974	0.12579356439185865
189	0.9540780141843972	0.1317315138400869	0.9554545450210571	0.12495491506475391
190	0.9536347517730497	0.12916055746535038	0.9518181831908948	0.12701820667945976
191	0.9548758865248227	0.1291076360019386	0.9539393953121069	0.12578095864165914
192	0.9536347517730497	0.1316013405297665	0.9521212134939252	0.1272337143168305
193	0.9570921985815602	0.12557403483289353	0.9542424231587034	0.1241952609835249
194	0.9546985815602836	0.12774448225684198	0.9548484862211979	0.12429536026535612
195	0.9569148936170213	0.12562729678255447	0.9572727261890065	0.12113227226517417
196	0.9568262411347518	0.12944718536967081	0.9527272740999858	0.12601276211666337
197	0.9595744680851064	0.12032587452137723	0.9518181831908948	0.12644333700339
198	0.9561170212765957	0.12477116422027561	0.9551515158739957	0.12343795308561036
199	0.9573581560283688	0.12097337946612784	0.9542424226529671	0.12416469196478526
200	0.9589539007092198	0.1196614480187707	0.9524242437969554	0.12600407818953197
201	0.9576241134751773	0.12190039242413027	0.9566666655829459	0.12162069335128321
202	0.9596631205673759	0.11893203047150416	0.950909092281804	0.1278005369865533
203	0.9602836879432625	0.12174686658466961	0.9560606079390555	0.12238346197388389
204	0.9603723404255319	0.11737324406280585	0.955454546177026	0.12236476305759314
205	0.9585992907801418	0.12108080767570657	0.9566666655829459	0.12055375258127848
206	0.9593971631205673	0.12003805713450655	0.9557575746738549	0.1216767777818622
207	0.9589539007092198	0.11876035374952547	0.9542424256151373	0.12399502952893575
208	0.9597517730496454	0.11776504438396887	0.9542424256151373	0.12349395847681797
209	0.9590425531914893	0.11747573140665149	0.9533333347060463	0.1236475566481099
210	0.9587765957446809	0.11966128564895467	0.9521212134939252	0.12616694882060542
211	0.9604609929078014	0.1147333211721258	0.9557575764800563	0.12160325341152423
212	0.9593971631205673	0.11690327016808462	0.9521212134939252	0.12424189867395344
213	0.9578900709219859	0.11712869820019878	0.9536363625526428	0.12187349769202145
214	0.9608156028368794	0.1161692072736456	0.9560606049768853	0.12045510118657893
215	0.9596631205673759	0.11742905606614783	0.9533333317438761	0.12360128792849454
216	0.9585992907801418	0.11889336208502452	0.9569696958859761	0.12057065624179263
217	0.962677304964539	0.11468290851471272	0.9566666655829459	0.12064212091041333
218	0.9562943262411348	0.1177759141786724	0.9545454559181675	0.12266548317490202
219	0.9591312056737589	0.1186932145281041	0.9545454559181675	0.12265738927956783
220	0.9622340425531914	0.10820341484343753	0.9563636370861169	0.12120106857834441
221	0.9617021276595744	0.11235718154315408	0.9542424256151373	0.12233647323015964
222	0.9604609929078014	0.11634454448172386	0.9533333347060463	0.12305031536203442
223	0.9609042553191489	0.11052971501299676	0.9527272740999858	0.12411283740491579
224	0.9617907801418439	0.1107381189968569	0.9563636352799155	0.12003047451828465
225	0.961436170212766	0.11307361121718765	0.9545454529559974	0.12129769130186602
226	0.961613475177305	0.11151989811489768	0.9557575758298238	0.11997157125762015
227	0.9622340425531914	0.1049772341729056	0.9539393953121069	0.12207017849792133
228	0.9618794326241135	0.11202175667945374	0.9557575740236225	0.11897383234717629
229	0.9622340425531914	0.11123408499497471	0.9524242437969554	0.12420838300025824
230	0.9636524822695035	0.10646338809466531	0.9503030316757434	0.1263916911681493
231	0.962677304964539	0.10645015863239342	0.9536363643588441	0.12168718959345962
232	0.9617907801418439	0.10853820973148583	0.9551515170299646	0.12040119859305295
233	0.961968085106383	0.110098745150769	0.9557575764800563	0.12013722761110826
234	0.9609042553191489	0.10948786416375045	0.956060607288823	0.11901305146289594
235	0.962677304964539	0.10895462970361643	0.9557575769857927	0.11843320738185535
236	0.9644503546099291	0.10242862659407423	0.9554545466827624	0.1185668720259811
237	0.9645390070921985	0.10091418222332676	0.9533333352117828	0.12098104628649625
238	0.9656028368794326	0.10094468562421224	0.9518181836966312	0.12260295815540083
239	0.963741134751773	0.10602959933961537	0.9518181836966312	0.12209299643834431
240	0.9664893617021276	0.10332184521653127	0.9551515170299646	0.12012103658733946
241	0.9656028368794326	0.10068193961542549	0.9527272734497533	0.12088676203380931
242	0.9674645390070922	0.0976116732925388	0.9551515170299646	0.11986779628377972
243	0.9665780141843971	0.10101089578993777	0.9527272734497533	0.12162393958279581
244	0.9688829787234042	0.09877661618780582	0.9524242443026918	0.12115940103025147
245	0.9655141843971631	0.0998647431004132	0.9554545466827624	0.11851189436334553
246	0.9640070921985816	0.10387401293355522	0.9542424261208736	0.12070043836579178
247	0.9660460992907801	0.09619230721013766	0.9542424249649047	0.12181956022074729
248	0.9650709219858156	0.1034928550349271	0.9557575776360252	0.11984899692463152
249	0.9655141843971631	0.10197361756301096	0.953636365514813	0.12030203998088837
250	0.9667553191489362	0.09815957766052678	0.9548484867269342	0.11919152803493269
251	0.9683510638297872	0.09808862109978994	0.9557575769857927	0.11821830868721009
252	0.9672872340425532	0.09796518790172347	0.9530303049087524	0.12012301221038356
253	0.9667553191489362	0.09848805517486647	0.9530303049087524	0.1205442477536924
254	0.9683510638297872	0.09246598012639698	0.9524242413405216	0.12115898023952137
255	0.9625886524822695	0.09893113374710083	0.9542424254706412	0.11875752114888394
256	0.9671099290780142	0.09655345138558682	0.9554545466827624	0.11778237183888753
257	0.9653368794326241	0.09798312779013993	0.9554545466827624	0.11706456422805786
258	0.9682624113475178	0.09775794667343721	0.9545454534617337	0.12005500612836896
259	0.9671099290780142	0.09522418975830078	0.9551515140677943	0.11951367667227081
260	0.9664893617021276	0.09478072534638939	0.9560606049768853	0.11792332865975119
261	0.9677304964539007	0.09710172185449735	0.9533333322496125	0.12027309074546351
262	0.9682624113475178	0.0914307675463088	0.9548484837647641	0.11830447162642624
263	0.9662234042553192	0.09379440222648865	0.9560606049768853	0.11811393983436354
264	0.9672872340425532	0.09698050425830462	0.9551515163797321	0.11719372882987514
265	0.9687943262411347	0.08923500951723004	0.9524242413405216	0.12097236864494555
266	0.9653368794326241	0.09374845966379693	0.9554545443708247	0.11903800585053184
267	0.9690602836879433	0.09507203478339717	0.9536363643588441	0.12276942480694164
268	0.9668439716312057	0.09334509016562861	0.9542424261208736	0.12128360818732868
269	0.9683510638297872	0.09198051866487408	0.9557575746738549	0.118547809232365
270	0.9665780141843971	0.0962624175645781	0.9554545443708247	0.11886748451175112
271	0.9665780141843971	0.09418162277351458	0.9542424231587034	0.11982640224875826
272	0.9671099290780142	0.09328077016992772	0.9527272716435519	0.12143063808932449
273	0.9695035460992908	0.08801585566384572	0.9557575746738549	0.11833086067979987
274	0.9700354609929078	0.08678643243479814	0.9554545455267935	0.1181831643075654
275	0.9700354609929078	0.08684044816920944	0.9554545437205921	0.11674209396044413
276	0.9688829787234042	0.08955915872509598	0.9551515134175619	0.11681949590191697
277	0.9694148936170213	0.08918859679648217	0.9551515134175619	0.11683498378955956
278	0.9706560283687943	0.08591106147208112	0.9563636352799155	0.11766791636293585
279	0.9695035460992908	0.08858502765073843	0.9551515140677943	0.11807610755616968
280	0.9681737588652483	0.09080145205272006	0.9545454534617337	0.11896381683421857
281	0.9698581560283688	0.08832466249347579	0.9554545455267935	0.11738168279329936
282	0.9707446808510638	0.0876993327910173	0.9557575758298238	0.11681635296705997
283	0.9710992907801419	0.08455291631373953	0.9560606061328542	0.11716439164046086
284	0.9698581560283688	0.08834778510086926	0.9542424231587034	0.11959077896493854
285	0.9699468085106383	0.08939557686342416	0.9524242443026918	0.12224073834491499
286	0.9719858156028369	0.08491358055290602	0.9560606049768853	0.11809316046310193
287	0.9724290780141844	0.08184850898617549	0.9542424231587034	0.11994790001349016
288	0.9714539007092199	0.08310009822355094	0.9551515140677943	0.11926454072648829
289	0.9710106382978724	0.08624558119063681	0.9533333322496125	0.12026177543582338
290	0.9705673758865249	0.08312385955178146	0.9533333322496125	0.12170835556405964
291	0.9716312056737588	0.08515585238206472	0.9554545443708247	0.11952113357457247
292	0.9713652482269504	0.08456900944101049	0.9542424231587034	0.11949568609396617
293	0.9691489361702128	0.08813911226201565	0.9566666678948836	0.11808699156298783
294	0.9711879432624113	0.08351671834152641	0.9539393928556731	0.11998358471827074
295	0.9702127659574468	0.08329404253274836	0.9542424231587034	0.11950134028087962
296	0.9726950354609929	0.07822270688224346	0.9533333322496125	0.12086490808111248
297	0.9712765957446808	0.08535898450418566	0.9554545437205921	0.11683194420554421
298	0.9719858156028369	0.08366785979440026	0.9551515134175619	0.11657942537105445
299	0.9715425531914894	0.08185694103545331	0.9551515134175619	0.1167073998667977
300	0.9707446808510638	0.08058991228223693	0.956060607288823	0.11771848635240034
301	0.9726063829787234	0.07912752746690249	0.9542424231587034	0.11977976502794208
302	0.9703014184397163	0.08297480603164815	0.9533333322496125	0.120246595342954
303	0.9713652482269504	0.08312431819050024	0.9569696958859761	0.11740036473129735
304	0.9734929078014184	0.0797629305234192	0.9563636364358844	0.11659184101856115
305	0.9710106382978724	0.07939692689171919	0.9545454552679351	0.12180060718998764
306	0.9720744680851063	0.08029306932544032	0.9551515140677943	0.11942714886231856
307	0.973404255319149	0.07822758548014552	0.954545456423904	0.12021892236940789
308	0.9729609929078015	0.0774870432939724	0.9530303049087524	0.1217200575091622
309	0.9726950354609929	0.07696395917987148	0.9560606061328542	0.11707128835446907
310	0.9727836879432624	0.07911092990890463	0.9560606054826216	0.11477945584239382
311	0.972872340425532	0.08051901142647926	0.9536363625526428	0.11916780244220387
312	0.974113475177305	0.07713927588564284	0.9554545443708247	0.11737293644384904
313	0.975354609929078	0.07314714328617068	0.9551515140677943	0.11784740720734452
314	0.976418439716312	0.07161089485207348	0.9560606043266527	0.1163854395981991
315	0.975354609929078	0.07899954361273041	0.955454544876561	0.11555521014964942
316	0.9747340425531915	0.0765810490922725	0.9542424225084709	0.11732457334345037
317	0.9735815602836879	0.07519594184684415	0.9548484837647641	0.11841677169005076
318	0.9745567375886525	0.07669323450284647	0.9530303049087524	0.12028737996563767
319	0.9731382978723404	0.07519934743854172	0.9521212110374913	0.12016224871982227
320	0.9756205673758865	0.07454015477329282	0.9545454528115013	0.11758256494998932
321	0.9730496453900709	0.07637694513966851	0.9527272716435519	0.11979117713191292
322	0.975886524822695	0.0739884421731352	0.9563636346296831	0.115507399819114
323	0.9752659574468086	0.07225706562505546	0.9563636346296831	0.11498675075444308
324	0.9734929078014184	0.07550892936633834	0.9557575751795914	0.11437376267982252
325	0.9742021276595745	0.07367063063256284	0.9545454546177026	0.1167160378441666
326	0.9762411347517731	0.07183374235181944	0.955454544876561	0.11488394798654498
327	0.9738475177304965	0.07313488218801241	0.9557575740236225	0.11484772111430312
328	0.9757978723404256	0.0692302257456678	0.9557575740236225	0.11503292827895194
329	0.9750886524822695	0.07323396430476338	0.953939394011642	0.11732146568370588
330	0.9756205673758865	0.07217962807903053	0.9560606054826216	0.11486048904332248
331	0.9711879432624113	0.07683024125847411	0.9560606054826216	0.1149550841071389
332	0.9727836879432624	0.07510184043265404	0.955454544876561	0.11534244887756578
333	0.9765070921985816	0.07053419166105859	0.9557575746738549	0.11743084674531763
334	0.9738475177304965	0.07362235161006873	0.9548484849207329	0.1170313623637864
335	0.9735815602836879	0.07461518848195989	0.9575757576480056	0.11617563262130275
336	0.9761524822695036	0.07066358102762953	0.955757577491529	0.11577283552198699
337	0.9757978723404256	0.07170778225499687	0.9554545455267935	0.1172753766450015
338	0.975177304964539	0.06747176110321748	0.9536363637086117	0.11806898341034398
339	0.9769503546099291	0.06849577474467297	0.953939394011642	0.11760341561201847
340	0.9773049645390071	0.06874813100864702	0.9557575751795914	0.11569659525697881
341	0.9773049645390071	0.06706235683556144	0.955454544876561	0.1153274394526626
342	0.9763297872340425	0.06826058114674075	0.9542424225084709	0.11606418266440882
343	0.9763297872340425	0.06965542835123996	0.9530303019465822	0.11895097929419893
344	0.9789007092198582	0.0651820413741871	0.9545454557736714	0.1169878137472904
345	0.9772163120567375	0.06826857573597143	0.9557575751795914	0.11580245343121616
346	0.9756205673758865	0.06806217432022095	0.955454544876561	0.11586947199070093
347	0.9789893617021277	0.06463311924235829	0.9563636364358844	0.11773086746533712
348	0.9749113475177305	0.06987878277580789	0.9533333334055814	0.11884914551720474
349	0.97677304964539	0.07081347484115168	0.9551515152237632	0.1179137343529499
350	0.9776595744680852	0.06631475570776783	0.9557575740236225	0.1171545278303551
351	0.9794326241134752	0.06519708519286298	0.9563636369416207	0.11592766183795351
352	0.9757092198581561	0.07286186446534826	0.9557575746738549	0.1182614188302647
353	0.9771276595744681	0.06517540599014743	0.9566666649327134	0.11626703316515143
354	0.975354609929078	0.06876390917715451	0.9563636352799155	0.11706985659671552
355	0.9798758865248227	0.061222077007834795	0.9539393958178434	0.11760615878032915
356	0.9777482269503546	0.06651981432809898	0.9566666649327134	0.11435957088614955
357	0.9801418439716312	0.06112630363051773	0.9572727273449754	0.11470759312311808
358	0.9778368794326241	0.0644283745094394	0.9557575740236225	0.11466972524469549
359	0.9771276595744681	0.06690266146621805	0.9560606066385905	0.11376486066615943
360	0.9785460992907802	0.062332123296057924	0.9557575776360252	0.11716301320177136
361	0.9781914893617021	0.06288348861197207	0.9563636346296831	0.11573298716183865
362	0.9789893617021277	0.06247164543638838	0.9563636346296831	0.11559850819183118
363	0.9787234042553191	0.06563175248761549	0.9563636346296831	0.11631542491190361
364	0.9774822695035461	0.06510939002037049	0.9569696981979139	0.116896156650601
365	0.9789007092198582	0.06461371001622356	0.9560606043266527	0.11668928572625825
366	0.9806737588652482	0.05833246052687895	0.9557575763355602	0.11488745194492918
367	0.9809397163120568	0.0597972220087305	0.9554545460325299	0.11483540907050624
368	0.9782801418439716	0.06264624308187065	0.9566666649327134	0.11528933814077666
369	0.9795212765957447	0.06078985164351497	0.955151516235236	0.11438017787355365
370	0.9782801418439716	0.06261433798370632	0.9557575763355602	0.11587646925088131
371	0.9799645390070922	0.06219121904396419	0.9554545460325299	0.11584063519131053
372	0.97677304964539	0.06538185329301983	0.956969697041945	0.11686401370799902
373	0.9781028368794327	0.062283796621552596	0.957878787951036	0.11633446343017347
374	0.9796985815602837	0.061726739969606516	0.9551515158739957	0.11903490209218227
375	0.9786347517730496	0.061907868362064904	0.9548484837647641	0.11791488262740049
376	0.9798758865248227	0.05892476947013791	0.9572727273449754	0.11663948290275805
377	0.9811170212765957	0.06012807921737644	0.9587878788601268	0.11601765928846416
378	0.975886524822695	0.06627161787519006	0.9566666655829459	0.11745970128160535
379	0.9807624113475177	0.05921866699313441	0.9575757588039745	0.11493943073532797
380	0.9820035460992907	0.05685302353734877	0.9563636369416207	0.114296547535694
381	0.9801418439716312	0.05990916728339297	0.9584848485570966	0.1142066662239306
382	0.9800531914893617	0.05720166329373705	0.9563636364358844	0.11578101748769934
383	0.9797872340425532	0.06060081458260827	0.9566666649327134	0.11511834581693013
384	0.9810283687943262	0.05809949019276504	0.9578787861448346	0.11521084561492458
385	0.9809397163120568	0.05718962514231391	0.956060607288823	0.11925322805390214
386	0.9812943262411348	0.054709193136886505	0.9587878800160957	0.11638183066339204
387	0.9811170212765957	0.05385629448062139	0.9557575740236225	0.11762209610505538
388	0.9809397163120568	0.055177329723716625	0.9569696975476814	0.11499957326686744
389	0.9818262411347518	0.05397949998683118	0.9572727278507117	0.11512329116012111
390	0.9810283687943262	0.05586496303584559	0.9569696975476814	0.1151542490901369
391	0.9804078014184398	0.05734826586347945	0.9569696975476814	0.11457893526915348
392	0.9804964539007093	0.056513600780608804	0.9569696952357437	0.11553892998984366
393	0.9808510638297873	0.05621699543392405	0.956969697041945	0.11757410096399712
394	0.9805851063829787	0.054905814365715	0.9572727285009442	0.11633757732131264
395	0.9804964539007093	0.055816389144735135	0.9554545437205921	0.1164194326689749
396	0.9797872340425532	0.057598769072945234	0.9566666672446511	0.11593720847910101
397	0.9813829787234043	0.056994089387779966	0.9575757569977731	0.11493380544763623
398	0.9820035460992907	0.054595047341170884	0.956969697041945	0.11671669401905753
399	0.9812056737588652	0.05663665055383182	0.957272725538774	0.11565381530559424
