epoch	acc	loss	val_acc	val_loss
0	0.5397914480918825	1.4214220409508938	0.7395205899160237	0.4820265558161127
1	0.6128277904388457	1.178623532155886	0.7774226596061872	0.44194109711068696
2	0.6640217190117753	1.077710797929849	0.8827699239760534	0.33597501366750504
3	0.6997531930757582	1.031037234097118	0.8699446832857716	0.34989910322582835
4	0.7228296414879181	0.9841473215968088	0.8657652118269036	0.35385481354228493
5	0.7397544271148478	0.9611863321383289	0.8649457076269446	0.3575608503474146
6	0.7560313444557715	0.9301609861745556	0.911247695366688	0.29684084995289706
7	0.7677114826580932	0.9141829930140601	0.8841221057887547	0.33074561512218686
8	0.7740605911180564	0.900387383537083	0.9064535958750818	0.3032926691650636
9	0.7812365027633802	0.9013422242575809	0.8800245848671137	0.33712528387412405
10	0.7895168754322904	0.8690323333513099	0.8955541894172602	0.31317313413252673
11	0.7943357808317638	0.8721545147102898	0.8546609302691518	0.3683283973829445
12	0.7999629789369069	0.8561211202450167	0.9034624048296337	0.3041641658433415
13	0.8073918676982429	0.8422030975973539	0.8901864368293745	0.32386443524472025
14	0.8095575985883794	0.8363018123579987	0.8934234791738873	0.3173539478352411
15	0.815561177298503	0.8332767295905072	0.8966195455146505	0.3125735123976653
16	0.8172271240711536	0.8204894699335114	0.8910469169549291	0.31688779710844095
17	0.8217992226089063	0.8245683090554548	0.9035443558479962	0.30243418342362316
18	0.8257419633072443	0.8088918025278696	0.8935873800138792	0.31168338222426484
19	0.8277657802287217	0.8043534923454492	0.9145257120492931	0.28466086988199
20	0.8314185228516658	0.8077694502034678	0.8889981564159546	0.31817565167372747
21	0.8301351267882365	0.7986181643917286	0.9209178448089735	0.27410628472383675
22	0.8361448756813039	0.7878788349710388	0.9242368368188076	0.2692804190607448
23	0.8360461529285247	0.7850511820769998	0.9172710511191559	0.2794800758496144
24	0.8394767693479697	0.773936294907665	0.9147305881774369	0.2807778735326661
25	0.8373048682675338	0.7734690830206205	0.9137471830593321	0.2784690449861102
26	0.8412167582203268	0.7701249064526523	0.9285392338685925	0.2569930857376006
27	0.8450546060329585	0.7603922874954588	0.925629993997815	0.26155529058485144
28	0.842413771846848	0.755132752563155	0.9165334974173468	0.27386252998365435
29	0.8469056580901815	0.7487541602587151	0.9384962097808637	0.23342661417072802
30	0.8451409884411806	0.743107375782644	0.923089531056096	0.25977794120629727
31	0.8503301043171205	0.7425035093386286	0.9207949192962107	0.2644034108942685
32	0.848781390707799	0.7315819200392882	0.9342347880192307	0.2386582764689489
33	0.8488862836744149	0.7275308605757693	0.9265724237105368	0.2535978770157129
34	0.8535879558436248	0.7231089606859995	0.8924400733792618	0.31121978559007507
35	0.8539458258784427	0.7100335462814037	0.9525097312875469	0.2008465113209496
36	0.852903066579113	0.7174599960649551	0.9512394998557644	0.20468114355296244
37	0.857629419408751	0.7060983983358375	0.9441098136287369	0.21092813894094636
38	0.8570062319258681	0.6996513184358361	0.9215324731934048	0.24897972351396896
39	0.8603874868891171	0.6894602104906549	0.9609506245471249	0.17627837505955551
40	0.8595915345655171	0.6990560161351731	0.9387010857917764	0.21838638607875852
41	0.8613315234378742	0.6791408460372806	0.9418561769225416	0.21230210679411718
42	0.8597581292350589	0.6937137045854848	0.8623642693970737	0.35135892908291305
43	0.8616462022376883	0.6727368293100101	0.9280885065586151	0.2350454480206959
44	0.8622508792717731	0.661527779744895	0.9635320634535165	0.15969130697247436
45	0.8645215030358473	0.65377392334081	0.9269002255859055	0.23052103371252367
46	0.868587647294501	0.6568394630424714	0.9160008198046045	0.25642660081667434
47	0.8668970197783059	0.6449694123598827	0.9326777301565395	0.22231805485808148
48	0.8673104214257842	0.6557617061781164	0.9525097312875469	0.1796500617865289
49	0.8682667983404291	0.6394337905279291	0.9483302601022179	0.18416163479541808
50	0.8673721231478342	0.6383495282768622	0.9546404421292863	0.17427007145103532
51	0.8716048621208978	0.6197813229605131	0.9198934646371788	0.23906242778325174
52	0.8728080458972635	0.6222965874846701	0.9610735507754854	0.15415870023845918
53	0.870987844720925	0.6106743756369305	0.9711944276059024	0.13575386172055562
54	0.8748010119091701	0.6151731694069034	0.8744929313610822	0.32346722278724904
55	0.8756278151254235	0.6013126060615795	0.9362835485582053	0.20683043674962537
56	0.8754241994325079	0.6135939608528193	0.9392747386535937	0.20146694655021277
57	0.8762880237250941	0.6051751409338546	0.9500921940539758	0.17492143566357848
58	0.8777626951133447	0.5916175898763748	0.951526326247596	0.1721400880613329
59	0.8784722650640286	0.5904877191194667	0.9461995492214015	0.18876140061105723
60	0.8782563089934564	0.5863815252113189	0.9726285599949076	0.11869966447707499
61	0.8801443820100611	0.5765077135560984	0.9555418967883182	0.15685645603292228
62	0.8814154377671816	0.57419515547838	0.9686949398351042	0.12651320012701117
63	0.882303942774626	0.5691318151657649	0.9575906579256594	0.1533206443339922
64	0.8854815819949424	0.5490578895918701	0.9477566072013236	0.16950672451002974
65	0.8844141420807883	0.5532659928056661	0.9688588406360191	0.1259559027723933
66	0.8859505151815268	0.5556265472769994	0.9408727718044367	0.18613178861712706
67	0.8869192324524976	0.5450216228864706	0.9688178654650982	0.12238087696060493
68	0.8883630530334177	0.5472060165837331	0.9758246261402858	0.10676154235949943
69	0.8893749614702513	0.5334370261314157	0.9684081134432726	0.11905928676647623
70	0.8908002715214637	0.5241396469411428	0.9664822785342919	0.12629360105232537
71	0.8900783611762058	0.5356988863525896	0.922270026777983	0.22399885322966553
72	0.8897760226687254	0.5255055410490374	0.9518131528738898	0.16153385713620158
73	0.8929413216445186	0.5184061963509504	0.942347879325286	0.17569001851463337
74	0.892015795615907	0.5163403403316207	0.9316943249993578	0.20320525000364512
75	0.8926204726190992	0.5127721029611609	0.9341118623110829	0.19719504747471833
76	0.8945640772248268	0.5005710590905909	0.9755787750366061	0.10400951476987086
77	0.8953970506909584	0.5105582413777406	0.9661954513877856	0.11836505674743135
78	0.8949034367799539	0.49520116158304645	0.9678754355569913	0.11867909207070028
79	0.8956191768709203	0.5039842881739025	0.9153042412737162	0.23563828008129958
80	0.8975257604554807	0.49358908153296677	0.9757836509302878	0.0978058346942345
81	0.8988893687537504	0.50285816696179	0.9097725872865492	0.2451604778900715
82	0.8977355463740018	0.4817299217370023	0.9345216144501394	0.19686728521549562
83	0.9003270192230741	0.47828896777843305	0.9786928908401423	0.08843841801224442
84	0.900487443671424	0.4570410353151647	0.9629584104744682	0.13007327269009453
85	0.898969581090831	0.481998687668115	0.9652530221171224	0.1232115495650037
86	0.9022212624321848	0.47334724637509834	0.9525507065366219	0.14797571576342575
87	0.9024495588259833	0.46954764132880117	0.9580004094272724	0.13574171658483986
88	0.9050965631876823	0.45604253836840847	0.9744314691566635	0.09927522560852127
89	0.9039735916226196	0.45304784398844766	0.9426756810052697	0.1707270623260872
90	0.9058740050955837	0.4520563951864891	0.9649661957252907	0.12537643912812527
91	0.9072005923300248	0.44451875915766836	0.9742265931457507	0.10010026338689763
92	0.9051520947672432	0.45927686321637556	0.9418971522497706	0.17061713933639414
93	0.9068118714378596	0.44501172196470096	0.944068838184277	0.16275413463873298
94	0.9097180231124901	0.4453263343619912	0.9165744727445757	0.23395086696489353
95	0.9076325044976485	0.4334395270929556	0.9422249539297541	0.1681956280483083
96	0.9116184364309904	0.4243922775694375	0.9480844090766922	0.1557040832382664
97	0.9101561054108342	0.42798191313462025	0.960049170083478	0.12965687895359698
98	0.9125624730510951	0.4269513143633696	0.9715222292077319	0.10495913630289222
99	0.9140124637745043	0.407457799045619	0.9532472853019721	0.14626203405761837
100	0.9137656567678818	0.42000449947971913	0.9508297478730159	0.15079439618479543
101	0.9129573640761873	0.41295044576797363	0.9507887731832306	0.15053836608691382
102	0.9154994755499734	0.4162575048146083	0.97152222936404	0.1006554574943595
103	0.9151477756885374	0.401682215155609	0.9794714199473344	0.08333890768219472
104	0.9170049978146954	0.40262952185599493	0.9711124773031374	0.10472438731622902
105	0.9175418029702658	0.40101418734523586	0.9755787751147601	0.08949813906914679
106	0.9176837169580488	0.39409669290099686	0.9500921941712068	0.14847280601635987
107	0.9161535139093278	0.4090106620282227	0.9602950212262347	0.12824790969023914
108	0.9163632997947493	0.4027532592986774	0.934849416208277	0.18300375507591543
109	0.9175294625830472	0.3907183856538821	0.9698832208859679	0.10407206295052407
110	0.9190103042351513	0.3881029895794063	0.975701700705677	0.08870963526325279
111	0.9203985932460725	0.38305315175665194	0.9770538825965324	0.08916554236477381
112	0.9188313692070771	0.390172537452767	0.9783650893164668	0.08065349108993067
113	0.9210279508501139	0.37399977324164435	0.9665642282386901	0.11358791632202653
114	0.9212253964696814	0.3801566748397093	0.972218807816774	0.09901889794534945
115	0.9210711421042418	0.3747280515574538	0.9696783449141321	0.10686744781021358
116	0.9220521996623974	0.367884421198889	0.9649252199169261	0.11589863544096836
117	0.9230209168620206	0.37283862888897606	0.9396844907926502	0.17101260156104908
118	0.9226013450507226	0.36725498735518536	0.9860274534297756	0.06035843258672099
119	0.9244955883525114	0.36512738574644926	0.9711944276059024	0.1009788917392474
120	0.9229653853037904	0.36580217737032644	0.9836918664208154	0.06665371968759129
121	0.9260813228594291	0.3577490863466407	0.9278016801667833	0.1973979059300738
122	0.9260011106363575	0.35795286559908546	0.9630813355451724	0.11883414296818376
123	0.9266798296988014	0.3540075392678436	0.9700471212448241	0.10245468394296185
124	0.926797062983495	0.3674277675900607	0.9842245442680198	0.06587177228317645
125	0.9269759980637927	0.3601705537955515	0.9829543126799293	0.06599497178680484
126	0.927704078530209	0.3433403899497236	0.9643105924825546	0.11572651059821452
127	0.9276547170526824	0.34889259608396367	0.9763573040656441	0.08691001898687141
128	0.9280557783320661	0.34074789246639287	0.9602540466536803	0.12655365090863768
129	0.9298019374800455	0.32917517658341205	0.9501741445130487	0.14840097980246733
130	0.9292527920086041	0.35631875732579515	0.9741446427648318	0.08701460393826094
131	0.9285987536205637	0.3359058748868861	0.9618520791280027	0.11879811022973309
132	0.9301783180467776	0.3365452293652524	0.957508707024528	0.1323592473797636
133	0.9317085209645724	0.32644426060751186	0.9873386601106331	0.054750056361637996
134	0.9320046892869022	0.33093724230051175	0.9778324115083394	0.08104047978621627
135	0.9294008762006618	0.3428886467404859	0.9748412212957199	0.08813465818353691
136	0.9313506509988954	0.3342658364802954	0.9560335993864477	0.13399551723169953
137	0.9325291540957089	0.3209238376778957	0.9597623435744153	0.12717035630947984
138	0.9333189362172409	0.32788632806971374	0.9726695350485975	0.09453971634369555
139	0.9323502190676346	0.33076028440175453	0.9813972547390841	0.07138904692974156
140	0.9334485099082771	0.3215442503411434	0.9721778326849302	0.09664594485907006
141	0.933781699242212	0.3226514356213701	0.9652939975225053	0.11036228047570497
142	0.9345159499437957	0.31676372881695336	0.9523048555110962	0.1393769871004657
143	0.9352440303932946	0.30240798011250225	0.9799221472182349	0.07499227492710016
144	0.9363114703074489	0.3068005168657517	0.9845933210407704	0.06310060467235966
145	0.9365582772427237	0.3052159088553598	0.9781192380174021	0.08262476322027998
146	0.9369593386052237	0.31147753233076825	0.9594345419335086	0.12690264685638517
147	0.9361695564101374	0.30149435383015605	0.980741651496348	0.07283404738816099
148	0.9375455050264847	0.3064080849349657	0.9819709077181324	0.06834680803381159
149	0.9374035910887185	0.30066752110947476	0.9769309570446925	0.08069763340634466
150	0.9377491207576485	0.30845072745923796	0.9520999794220294	0.14400067843971523
151	0.9392608132340006	0.2917776111719558	0.9726285599167536	0.09558361752923823
152	0.9399703831228989	0.29880405499461904	0.9767670560483926	0.08220562982775349
153	0.9401739988945176	0.2898101030923336	0.9768490066246965	0.08419886933724745
154	0.9406305916821147	0.2920909264589758	0.9704978490359372	0.09974934968748583
155	0.9394027271717668	0.29032796591459625	0.9775046098283557	0.08115851703975514
156	0.940519528596547	0.2945017528709914	0.9801679984782227	0.07319178688623236
157	0.9412661196162083	0.2865401086940678	0.9713583284068171	0.09647971157200559
158	0.9413463317870564	0.28617987267407763	0.9845933210407704	0.06192583461394932
159	0.9410810144147521	0.2942468485333811	0.9761524280938084	0.08404816204658715
160	0.9394952797938255	0.29228513934467076	0.9644335181125484	0.11150312386277611
161	0.9399025112774839	0.2885768191553452	0.9800040976773078	0.07491981279310254
162	0.9416425001498411	0.2816141921281447	0.9736529403230104	0.09063036252951139
163	0.9428456840115296	0.28973076352528376	0.9691046920523149	0.10183937010236803
164	0.9428765348166535	0.28089510991313393	0.9666052041252088	0.10710965389203791
165	0.9426544086057989	0.27267593518143163	0.9729973369239662	0.09075073182927831
166	0.9433084469533844	0.27629900566041526	0.970620774783162	0.09742015358491819
167	0.9431233417614904	0.2781990085887815	0.9750460973457097	0.08460796140477785
168	0.9446535447293019	0.2722171439312915	0.9725466094576807	0.09431439487920314
169	0.9449435429091426	0.27665677939384703	0.9721778326458531	0.09189321943813478
170	0.9440550379421531	0.26868718825315147	0.9704158980175746	0.0976912613134603
171	0.9448756709828179	0.2633251679635411	0.9834050399508297	0.06391060612927851
172	0.944764607902399	0.27480776634635273	0.9707437003740789	0.0959637512502319
173	0.9458505583962779	0.2615948561568186	0.9800040977554618	0.07453307775206996
